{
  "client_version" : {
    "key" : "client_version",
    "value" : "0,1"
  },
  "lobby_inven_max" : {
    "key" : "lobby_inven_max",
    "value" : 40
  },
  "ticket_regen_time" : {
    "key" : "ticket_regen_time",
    "value" : 1800000
  },
  "bottle_spirit_max" : {
    "key" : "bottle_spirit_max",
    "value" : 50
  }
}