{
  "grim_pencil" : {
    "id" : "grim_pencil",
    "npcID" : "TEST_NPC",
    "message" : "연필 {0}개만 가져와주면 두둑하게 보상해줄게. 귀여운 동네 꼬마 아이가 그림을 그리기 시작했더라고. 자기가 그린 그림이라고 자랑하면서 보여주는데, 그 모습이 어찌나 사랑스럽던지... 아이에게 선물을 주고 싶어. 꼭 가져다 주면 좋겠어!",
    "itemID" : "pencil",
    "min" : 10,
    "max" : 15
  }
}